	    //Read
            using(FilmeContext fc = new FilmeContext())
            {
                List<Filme> objFilmes = fc.Filmes.ToList<Filme>();
            }
            //insert
            //using(FilmeContext fc = new FilmeContext())
            //{
            //    Filme film = new Filme() { id = "30" };
            //    fc.Filmes.Add(film);
            //    fc.SaveChanges();
            //}

            //update
            //using(FilmeContext fc = new FilmeContext())
            //{
            //    Filme film = (from f1 in fc.Filmes
            //                  where f1.id == "10"
            //                  select f1).FirstOrDefault();
	    //    //modify it
            //    film.url_imagem = "url da imagem do id dez";
            //    film.titulo = "Titulo do id dez";
	    //    //save it
            //    fc.SaveChanges();

            //}

            //delete
            //using (FilmeContext sb = new FilmeContext())
            //{
            //    var objc = (IObjectContextAdapter)sb;


            //    Filme fil = (from f1 in sb.Filmes where f1.id == "30" select f1).First();
	    //    //delete it
            //    ((IObjectContextAdapter)sb).ObjectContext.DeleteObject(fil);
	    //    //save it
            //    sb.SaveChanges();

            //}

            //Update Funcionando
            //DB.WebService1 wbs = new DB.WebService1();
            //Filme fil = new Filme();
            ////List<Filme> objFilmes = fc.Filmes.ToList<Filme>();
            //fil.id = 1;
            //fil.rating = 8;
            //fil.titulo = "titulo do naruto modificado";
            //wbs.UpdateData(fil);